{
  "capture_background" : "false",
  "generate_png" : "true",
  "show_preview" : "true",
  "show_list" : "true",
  "pane_position" : "300",
  "window_width" : "616",
  "window_height" : "500",
  "startup_delay" : "10",
  "search-locations" : [
  ]
}